[{"id":1,"importe":"$832.60","tipo":"Abono","fecha":"26/03/2019","descripcion":"Toys","id_account":1},
{"id":2,"importe":"$211.31","tipo":"Abono","fecha":"06/07/2019","descripcion":"Beauty","id_account":2},
{"id":3,"importe":"$573.03","tipo":"Abono","fecha":"24/01/2019","descripcion":"Garden","id_account":3},
{"id":4,"importe":"$183.26","tipo":"Cargo","fecha":"15/08/2019","descripcion":"Industrial","id_account":4},
{"id":5,"importe":"$407.04","tipo":"Abono","fecha":"07/08/2019","descripcion":"Clothing","id_account":5},
{"id":6,"importe":"$305.16","tipo":"Abono","fecha":"09/03/2019","descripcion":"Health","id_account":6},
{"id":7,"importe":"$579.79","tipo":"Cargo","fecha":"10/05/2019","descripcion":"Clothing","id_account":7},
{"id":8,"importe":"$765.15","tipo":"Cargo","fecha":"23/03/2019","descripcion":"Beauty","id_account":8},
{"id":9,"importe":"$678.23","tipo":"Cargo","fecha":"28/12/2018","descripcion":"Games","id_account":9},
{"id":10,"importe":"$190.88","tipo":"Abono","fecha":"31/05/2019","descripcion":"Music","id_account":10}]